Loading: ../data/nl/w2v.bin
Loading: ../data/nl/w2v.bin.cache
Loading: ./../data/nl/aspell-model
Loading: ../data/nl/twitter.ngr.bin
Loading: ../data/nl/wiki.ngr.bin
Loading: ../data/nl/aspell
Loading: ../data/nl/aspell
not enough sentences
Trained on 578 sentences
Loading input file: ../working/voc.nl.data.
Growing trees ..
Growing trees.. Progress: 61%. Estimated remaining time: 19 seconds.
Computing prediction error ..
Saved forest to file ../working/voc.nl.forest.

Tree type:                         Probability estimation
Dependent variable name:           gold
Dependent variable ID:             27
Number of trees:                   500
Sample size:                       198081
Number of independent variables:   27
Mtry:                              5
Target node size:                  10
Variable importance mode:          0
Memory mode:                       0
Seed:                              5
Number of threads:                 4

Overall OOB prediction error:      0.000235975

Saved prediction error to file ../working/voc.nl.confusion.
Loading: ../working/voc.nl.forest.
