Loading: ../data/sr/w2v.bin
Loading: ../data/sr/w2v.bin.cache
Loading: ./../data/sr/aspell-model
Loading: ../data/sr/twitter.ngr.bin
Loading: ../data/sr/wiki.ngr.bin
Loading: 
Loading: ../data/sr/aspell
not enough sentences
Trained on 5520 sentences
Loading input file: ../working/testModel.g.sr.data.
Growing trees ..
Growing trees.. Progress: 16%. Estimated remaining time: 2 minutes, 42 seconds.
Growing trees.. Progress: 32%. Estimated remaining time: 2 minutes, 9 seconds.
Growing trees.. Progress: 47%. Estimated remaining time: 1 minute, 45 seconds.
Growing trees.. Progress: 59%. Estimated remaining time: 1 minute, 26 seconds.
Growing trees.. Progress: 73%. Estimated remaining time: 56 seconds.
Growing trees.. Progress: 88%. Estimated remaining time: 26 seconds.
Growing trees.. Progress: 99%. Estimated remaining time: 2 seconds.
Computing prediction error ..
Saved forest to file ../working/testModel.g.sr.forest.

Tree type:                         Probability estimation
Dependent variable name:           gold
Dependent variable ID:             27
Number of trees:                   500
Sample size:                       634158
Number of independent variables:   27
Mtry:                              5
Target node size:                  10
Variable importance mode:          0
Memory mode:                       0
Seed:                              5
Number of threads:                 4

Overall OOB prediction error:      0.000358636

Saved prediction error to file ../working/testModel.g.sr.confusion.
Loading: ../working/testModel.g.sr.forest.
