EVALUATION:
 rank    counts    recall
    1      8929    0.9738
    2       117    0.9866
    3        16    0.9883
    4         1    0.9884
    5         2    0.9887
    6         2    0.9889
    7         0    0.9889
    8         0    0.9889
    9         0    0.9889
   10         1    0.989

                      rec   prec    f1
Error Detection:     0.81 0.8938 0.8498
Normalization:     0.7882 0.8697 0.8269

WER:  0.02618
CER:  0.0148

notFound:           60
Total:              9169
Average candidates: 74.73
Upperbound:         0.9935 (9109)
Baseline:           0.915 (8390)
Training time:      711
Testing time:       68

TP 614
TN 8315
FP 75
FN 165
Real Prec: 0.8911
normed: 706
Real rec: 0.7882
needNorm: 779
ERR:  0.6919

orig = cand[0]     53
orig = cand[1]     58
orig = cand[other] 6
