EVALUATION:
 rank    counts    recall
    1      2643    0.9847
    2        15    0.9903
    3         6    0.9925
    4         2    0.9933
    5         1    0.9937
    6         0    0.9937
    7         1    0.994
    8         0    0.994
    9         0    0.994
   10         0    0.994

                      rec   prec    f1
Error Detection:   0.4237 0.8065 0.5556
Normalization:     0.4068 0.7742 0.5333

WER:  0.01528
CER:  0.007718

notFound:           9
Total:              2684
Average candidates: 189.6
Upperbound:         0.9966 (2675)
Baseline:           0.978 (2625)
Training time:      506
Testing time:       84

TP 24
TN 2619
FP 6
FN 35
Real Prec: 0.8
normed: 31
Real rec: 0.4068
needNorm: 59
ERR:  0.3051

orig = cand[0]     10
orig = cand[1]     5
orig = cand[other] 0
