EVALUATION:
 rank    counts    recall
    1     12865    0.8402
    2        68    0.8447
    3        10    0.8453
    4         3    0.8455
    5         0    0.8455
    6         2    0.8457
    7         1    0.8457
    8         1    0.8458
    9         1    0.8459
   10         1    0.8459

                      rec   prec    f1
Error Detection:  0.004075 0.83330.00811
Normalization:    0.004075 0.83330.00811

WER:  0.1598
CER:  0.04867

notFound:           2338
Total:              15311
Average candidates: 162.1
Upperbound:         0.8473 (12973)
Baseline:           0.8397 (12857)
Training time:      5135
Testing time:       650

TP 10
TN 12855
FP 2
FN 2444
Real Prec: 0.8333
normed: 12
Real rec: 0.004075
needNorm: 2454
ERR:  0.00326

orig = cand[0]     66
orig = cand[1]     2
orig = cand[other] 0
