EVALUATION:
 rank    counts    recall
    1      7261    0.8985
    2        94    0.9102
    3         9    0.9113
    4         8    0.9123
    5         0    0.9123
    6         0    0.9123
    7         2    0.9125
    8         0    0.9125
    9         0    0.9125
   10         0    0.9125

                      rec   prec    f1
Error Detection:  0.05621    0.8  0.105
Normalization:    0.05386 0.7667 0.1007

WER:  0.1015
CER:  0.04174

notFound:           700
Total:              8081
Average candidates: 76.22
Upperbound:         0.9134 (7381)
Baseline:           0.8943 (7227)
Training time:      2396
Testing time:       198

TP 46
TN 7215
FP 12
FN 808
Real Prec: 0.7931
normed: 60
Real rec: 0.05386
needNorm: 854
ERR:  0.03981

orig = cand[0]     83
orig = cand[1]     10
orig = cand[other] 1
