EVALUATION:
 rank    counts    recall
    1      8612    0.9393
    2       120    0.9523
    3        19    0.9544
    4         4    0.9548
    5         1    0.955
    6         0    0.955
    7         0    0.955
    8         1    0.9551
    9         0    0.9551
   10         0    0.9551

                      rec   prec    f1
Error Detection:   0.3517 0.8782 0.5023
Normalization:     0.3338 0.8333 0.4766

WER:  0.06075
CER:  0.0491

notFound:           403
Total:              9169
Average candidates: 72.47
Upperbound:         0.956 (8766)
Baseline:           0.915 (8390)
Training time:      1566
Testing time:       223

TP 260
TN 8352
FP 38
FN 519
Real Prec: 0.8725
normed: 312
Real rec: 0.3338
needNorm: 779
ERR:  0.285

orig = cand[0]     85
orig = cand[1]     31
orig = cand[other] 4
