EVALUATION:
 rank    counts    recall
    1      2623    0.982
    2        20    0.9895
    3         3    0.9906
    4         3    0.9918
    5         0    0.9918
    6         0    0.9918
    7         1    0.9921
    8         0    0.9921
    9         0    0.9921
   10         0    0.9921

                      rec   prec    f1
Error Detection:   0.2712 0.7619    0.4
Normalization:     0.2712 0.7619    0.4

WER:  0.01797
CER:  0.008546

notFound:           16
Total:              2671
Average candidates: 162.3
Upperbound:         0.994 (2655)
Baseline:           0.9779 (2612)
Training time:      409
Testing time:       99

TP 16
TN 2607
FP 5
FN 43
Real Prec: 0.7619
normed: 21
Real rec: 0.2712
needNorm: 59
ERR:  0.1864

orig = cand[0]     15
orig = cand[1]     5
orig = cand[other] 0
