EVALUATION:
 rank    counts    recall
    1     17929    0.9466
    2       511    0.9735
    3        61    0.9768
    4        24    0.978
    5        14    0.9788
    6         8    0.9792
    7         3    0.9794
    8         4    0.9796
    9         3    0.9797
   10         2    0.9798

                      rec   prec    f1
Error Detection:   0.5312 0.9489 0.6811
Normalization:     0.5112 0.9132 0.6555

WER:  0.05343
CER:  0.02234

notFound:           331
Total:              18941
Average candidates: 86.89
Upperbound:         0.9825 (18610)
Baseline:           0.8967 (16985)
Training time:      2922
Testing time:       504

TP 1000
TN 16929
FP 56
FN 956
Real Prec: 0.947
normed: 1095
Real rec: 0.5112
needNorm: 1956
ERR:  0.4826

orig = cand[0]     510
orig = cand[1]     51
orig = cand[other] 11
