EVALUATION:
 rank    counts    recall
    1      1305    0.9145
    2         2    0.9159
    3         0    0.9159
    4         0    0.9159
    5         0    0.9159
    6         1    0.9166
    7         0    0.9166
    8         0    0.9166
    9         0    0.9166
   10         0    0.9166

                      rec   prec    f1
Error Detection:        0   -nan   -nan
Normalization:          0   -nan   -nan

WER:  0.08549
CER:  0.03517

notFound:           119
Total:              1427
Average candidates: 15.7
Upperbound:         0.9166 (1308)
Baseline:           0.9145 (1305)
Training time:      82
Testing time:       18

TP 0
TN 1305
FP 0
FN 122
Real Prec: -nan
normed: 0
Real rec: 0
needNorm: 122
ERR:  0

orig = cand[0]     2
orig = cand[1]     0
orig = cand[other] 0
