EVALUATION:
 rank    counts    recall
    1     17814    0.9405
    2       485    0.9661
    3        59    0.9692
    4        22    0.9704
    5        14    0.9711
    6         7    0.9715
    7         6    0.9718
    8         5    0.9721
    9         0    0.9721
   10         2    0.9722

                      rec   prec    f1
Error Detection:   0.4714 0.9427 0.6285
Normalization:     0.4525 0.9049 0.6033

WER:  0.0595
CER:  0.02435

notFound:           463
Total:              18941
Average candidates: 85.27
Upperbound:         0.9756 (18478)
Baseline:           0.8967 (16985)
Training time:      3054
Testing time:       528

TP 885
TN 16929
FP 56
FN 1071
Real Prec: 0.9405
normed: 978
Real rec: 0.4525
needNorm: 1956
ERR:  0.4238

orig = cand[0]     488
orig = cand[1]     52
orig = cand[other] 6
