EVALUATION:
 rank    counts    recall
    1     12917    0.8436
    2       145    0.8531
    3        14    0.854
    4         4    0.8543
    5         3    0.8545
    6         2    0.8546
    7         2    0.8547
    8         1    0.8548
    9         0    0.8548
   10         0    0.8548

                      rec   prec    f1
Error Detection:  0.02934 0.86750.05676
Normalization:    0.02893 0.85540.05597

WER:  0.1564
CER:  0.04796

notFound:           2208
Total:              15311
Average candidates: 174.9
Upperbound:         0.8558 (13103)
Baseline:           0.8397 (12857)
Training time:      5730
Testing time:       645

TP 71
TN 12846
FP 11
FN 2383
Real Prec: 0.8659
normed: 83
Real rec: 0.02893
needNorm: 2454
ERR:  0.02445

orig = cand[0]     134
orig = cand[1]     11
orig = cand[other] 0
