EVALUATION:
 rank    counts    recall
    1     17930    0.9466
    2       497    0.9729
    3        55    0.9758
    4        28    0.9772
    5        13    0.9779
    6        11    0.9785
    7         6    0.9788
    8         2    0.9789
    9         8    0.9794
   10         1    0.9794

                      rec   prec    f1
Error Detection:   0.5307 0.9497 0.6809
Normalization:     0.5112 0.9149  0.656

WER:  0.05338
CER:  0.02239

notFound:           330
Total:              18941
Average candidates: 86.89
Upperbound:         0.9826 (18611)
Baseline:           0.8967 (16985)
Training time:      2668
Testing time:       513

TP 1000
TN 16930
FP 55
FN 956
Real Prec: 0.9479
normed: 1093
Real rec: 0.5112
needNorm: 1956
ERR:  0.4831

orig = cand[0]     497
orig = cand[1]     50
orig = cand[other] 11
