EVALUATION:
 rank    counts    recall
    1      8391    0.9151
    2         6    0.9158
    3         0    0.9158
    4         0    0.9158
    5         0    0.9158
    6         0    0.9158
    7         0    0.9158
    8         0    0.9158
    9         0    0.9158
   10         0    0.9158

                      rec   prec    f1
Error Detection:  0.001284      10.002564
Normalization:    0.001284      10.002564

WER:  0.08485
CER:  0.06182

notFound:           766
Total:              9169
Average candidates: 55.43
Upperbound:         0.9165 (8403)
Baseline:           0.915 (8390)
Training time:      766
Testing time:       139

TP 1
TN 8390
FP 0
FN 778
Real Prec: 1
normed: 1
Real rec: 0.001284
needNorm: 779
ERR:  0.001284

orig = cand[0]     6
orig = cand[1]     0
orig = cand[other] 0
