EVALUATION:
 rank    counts    recall
    1      2631    0.985
    2        16    0.991
    3         4    0.9925
    4         0    0.9925
    5         1    0.9929
    6         1    0.9933
    7         2    0.994
    8         0    0.994
    9         0    0.994
   10         0    0.994

                      rec   prec    f1
Error Detection:   0.4407 0.8387 0.5778
Normalization:     0.4068 0.7742 0.5333

WER:  0.01498
CER:  0.008262

notFound:           9
Total:              2671
Average candidates: 162.7
Upperbound:         0.9966 (2662)
Baseline:           0.9779 (2612)
Training time:      510
Testing time:       118

TP 24
TN 2607
FP 5
FN 35
Real Prec: 0.8276
normed: 31
Real rec: 0.4068
needNorm: 59
ERR:  0.322

orig = cand[0]     12
orig = cand[1]     4
orig = cand[other] 0
