EVALUATION:
 rank    counts    recall
    1      1344    0.9418
    2        44    0.9727
    3         7    0.9776
    4         1    0.9783
    5         2    0.9797
    6         1    0.9804
    7         0    0.9804
    8         0    0.9804
    9         1    0.9811
   10         0    0.9811

                      rec   prec    f1
Error Detection:   0.3525 0.9348 0.5119
Normalization:     0.3443  0.913    0.5

WER:  0.05816
CER:  0.02596

notFound:           26
Total:              1427
Average candidates: 71.03
Upperbound:         0.9818 (1401)
Baseline:           0.9145 (1305)
Training time:      209
Testing time:       41

TP 42
TN 1302
FP 3
FN 80
Real Prec: 0.9333
normed: 46
Real rec: 0.3443
needNorm: 122
ERR:  0.3197

orig = cand[0]     43
orig = cand[1]     3
orig = cand[other] 0
