EVALUATION:
 rank    counts    recall
    1      8508    0.9279
    2       126    0.9417
    3        11    0.9429
    4         6    0.9435
    5         0    0.9435
    6         0    0.9435
    7         0    0.9435
    8         0    0.9435
    9         1    0.9436
   10         1    0.9437

                      rec   prec    f1
Error Detection:   0.2118 0.8128  0.336
Normalization:     0.2003 0.7685 0.3177

WER:  0.07209
CER:  0.05601

notFound:           507
Total:              9169
Average candidates: 71.5
Upperbound:         0.9447 (8662)
Baseline:           0.915 (8390)
Training time:      1887
Testing time:       203

TP 156
TN 8352
FP 38
FN 623
Real Prec: 0.8041
normed: 203
Real rec: 0.2003
needNorm: 779
ERR:  0.1515

orig = cand[0]     89
orig = cand[1]     36
orig = cand[other] 1
