EVALUATION:
 rank    counts    recall
    1      1316    0.9222
    2        21    0.9369
    3         3    0.939
    4         1    0.9397
    5         0    0.9397
    6         1    0.9404
    7         0    0.9404
    8         0    0.9404
    9         0    0.9404
   10         0    0.9404

                      rec   prec    f1
Error Detection:  0.09836      1 0.1791
Normalization:    0.09016 0.9167 0.1642

WER:  0.07779
CER:  0.03292

notFound:           84
Total:              1427
Average candidates: 62.53
Upperbound:         0.9411 (1343)
Baseline:           0.9145 (1305)
Training time:      203
Testing time:       39

TP 11
TN 1305
FP 0
FN 111
Real Prec: 1
normed: 12
Real rec: 0.09016
needNorm: 122
ERR:  0.09016

orig = cand[0]     21
orig = cand[1]     0
orig = cand[other] 1
