EVALUATION:
 rank    counts    recall
    1      7515    0.93
    2       205    0.9553
    3        30    0.959
    4        13    0.9606
    5         5    0.9613
    6         1    0.9614
    7         2    0.9616
    8         2    0.9619
    9         1    0.962
   10         1    0.9621

                      rec   prec    f1
Error Detection:   0.4426 0.8494  0.582
Normalization:     0.4157 0.7978 0.5466

WER:  0.07004
CER:  0.02946

notFound:           295
Total:              8081
Average candidates: 81.59
Upperbound:         0.9635 (7786)
Baseline:           0.8943 (7227)
Training time:      2394
Testing time:       227

TP 355
TN 7160
FP 67
FN 499
Real Prec: 0.8412
normed: 445
Real rec: 0.4157
needNorm: 854
ERR:  0.3372

orig = cand[0]     140
orig = cand[1]     59
orig = cand[other] 6
