EVALUATION:
 rank    counts    recall
    1      1305    0.9145
    2         0    0.9145
    3         0    0.9145
    4         0    0.9145
    5         0    0.9145
    6         0    0.9145
    7         0    0.9145
    8         0    0.9145
    9         0    0.9145
   10         0    0.9145

                      rec   prec    f1
Error Detection:        0   -nan   -nan
Normalization:          0   -nan   -nan

WER:  0.08549
CER:  0.03517

notFound:           122
Total:              1427
Average candidates: 0
Upperbound:         0.9145 (1305)
Baseline:           0.9145 (1305)
Training time:      57
Testing time:       11

TP 0
TN 1305
FP 0
FN 122
Real Prec: -nan
normed: 0
Real rec: 0
needNorm: 122
ERR:  0

orig = cand[0]     0
orig = cand[1]     0
orig = cand[other] 0
