EVALUATION:
 rank    counts    recall
    1     16395    0.9213
    2         0    0.9213
    3         0    0.9213
    4         0    0.9213
    5         0    0.9213
    6         0    0.9213
    7         0    0.9213
    8         0    0.9213
    9         0    0.9213
   10         0    0.9213

                      rec   prec    f1
Error Detection:        0   -nan   -nan
Normalization:          0   -nan   -nan

WER:  0.07873
CER:  0.03287

notFound:           1401
Total:              17796
Average candidates: 0
Upperbound:         0.9213 (16395)
Baseline:           0.9213 (16395)
Training time:      257
Testing time:       81

TP 0
TN 16395
FP 0
FN 1401
Real Prec: -nan
normed: 0
Real rec: 0
needNorm: 1401
ERR:  0

orig = cand[0]     0
orig = cand[1]     0
orig = cand[other] 0
