EVALUATION:
 rank    counts    recall
    1      8403    0.9165
    2        69    0.924
    3         9    0.925
    4         5    0.9255
    5         1    0.9256
    6         1    0.9257
    7         1    0.9258
    8         0    0.9258
    9         1    0.9259
   10         0    0.9259

                      rec   prec    f1
Error Detection:  0.01926 0.88240.03769
Normalization:    0.01926 0.88240.03769

WER:  0.08354
CER:  0.06111

notFound:           670
Total:              9169
Average candidates: 66.45
Upperbound:         0.9269 (8499)
Baseline:           0.915 (8390)
Training time:      1760
Testing time:       191

TP 15
TN 8388
FP 2
FN 764
Real Prec: 0.8824
normed: 17
Real rec: 0.01926
needNorm: 779
ERR:  0.01669

orig = cand[0]     67
orig = cand[1]     2
orig = cand[other] 0
