EVALUATION:
 rank    counts    recall
    1     13668    0.8927
    2       394    0.9184
    3        79    0.9236
    4        36    0.9259
    5        15    0.9269
    6         8    0.9274
    7         7    0.9279
    8         5    0.9282
    9         6    0.9286
   10         4    0.9289

                      rec   prec    f1
Error Detection:   0.3965 0.9329 0.5565
Normalization:      0.359 0.8447 0.5039

WER:  0.1073
CER:  0.03354

notFound:           1051
Total:              15311
Average candidates: 201.1
Upperbound:         0.9314 (14260)
Baseline:           0.8397 (12857)
Training time:      5606
Testing time:       805

TP 881
TN 12787
FP 70
FN 1573
Real Prec: 0.9264
normed: 1043
Real rec: 0.359
needNorm: 2454
ERR:  0.3305

orig = cand[0]     326
orig = cand[1]     64
orig = cand[other] 31
