EVALUATION:
 rank    counts    recall
    1     16395    0.9213
    2        26    0.9227
    3         3    0.9229
    4         1    0.923
    5         0    0.923
    6         0    0.923
    7         0    0.923
    8         0    0.923
    9         0    0.923
   10         0    0.923

                      rec   prec    f1
Error Detection:        0   -nan   -nan
Normalization:          0   -nan   -nan

WER:  0.07873
CER:  0.03287

notFound:           1342
Total:              17796
Average candidates: 94.06
Upperbound:         0.9246 (16454)
Baseline:           0.9213 (16395)
Training time:      4857
Testing time:       483

TP 0
TN 16395
FP 0
FN 1401
Real Prec: -nan
normed: 0
Real rec: 0
needNorm: 1401
ERR:  0

orig = cand[0]     26
orig = cand[1]     0
orig = cand[other] 0
