EVALUATION:
 rank    counts    recall
    1     17098    0.9608
    2       178    0.9708
    3        38    0.9729
    4        12    0.9736
    5         7    0.974
    6         8    0.9744
    7         9    0.9749
    8         6    0.9753
    9         1    0.9753
   10         3    0.9755

                      rec   prec    f1
Error Detection:   0.5546 0.9476 0.6997
Normalization:     0.5325 0.9098 0.6718

WER:  0.03922
CER:  0.01749

notFound:           416
Total:              17796
Average candidates: 112.5
Upperbound:         0.9766 (17380)
Baseline:           0.9213 (16395)
Training time:      4819
Testing time:       670

TP 746
TN 16352
FP 43
FN 655
Real Prec: 0.9455
normed: 820
Real rec: 0.5325
needNorm: 1401
ERR:  0.5018

orig = cand[0]     154
orig = cand[1]     42
orig = cand[other] 6
