EVALUATION:
 rank    counts    recall
    1     14363    0.9381
    2       401    0.9643
    3        89    0.9701
    4        39    0.9726
    5        18    0.9738
    6         9    0.9744
    7         9    0.975
    8         3    0.9752
    9         4    0.9754
   10         2    0.9756

                      rec   prec    f1
Error Detection:    0.687 0.9569 0.7998
Normalization:     0.6447 0.8978 0.7505

WER:  0.06192
CER:  0.02197

notFound:           331
Total:              15311
Average candidates: 215.4
Upperbound:         0.9784 (14980)
Baseline:           0.8397 (12857)
Training time:      6130
Testing time:       768

TP 1582
TN 12781
FP 76
FN 872
Real Prec: 0.9542
normed: 1762
Real rec: 0.6447
needNorm: 2454
ERR:  0.6137

orig = cand[0]     323
orig = cand[1]     66
orig = cand[other] 39
