EVALUATION:
 rank    counts    recall
    1     14039    0.9169
    2       368    0.941
    3        74    0.9458
    4        42    0.9485
    5        26    0.9502
    6         6    0.9506
    7         8    0.9511
    8         3    0.9513
    9         8    0.9519
   10         1    0.9519

                      rec   prec    f1
Error Detection:   0.5562 0.9453 0.7004
Normalization:     0.5139 0.8733  0.647

WER:  0.08308
CER:  0.02652

notFound:           700
Total:              15311
Average candidates: 208.9
Upperbound:         0.9543 (14611)
Baseline:           0.8397 (12857)
Training time:      11646
Testing time:       793

TP 1261
TN 12778
FP 79
FN 1193
Real Prec: 0.941
normed: 1444
Real rec: 0.5139
needNorm: 2454
ERR:  0.4817

orig = cand[0]     289
orig = cand[1]     71
orig = cand[other] 35
