EVALUATION:
 rank    counts    recall
    1      1406    0.7188
    2        74    0.7566
    3        28    0.771
    4        17    0.7797
    5        14    0.7868
    6        12    0.7929
    7         5    0.7955
    8         9    0.8001
    9         7    0.8037
   10         5    0.8062

                      rec   prec    f1
Error Detection:   0.9688      1 0.9842
Normalization:     0.7188  0.742 0.7302

WER:  0.02904
CER:  0.01829

notFound:           330
Total:              1956
Average candidates: 93.01
Upperbound:         0.8313 (1626)
Baseline:           0 (0)
Training time:      61
Testing time:       37

TP 1406
TN 0
FP 0
FN 550
Real Prec: 1
normed: 1895
Real rec: 0.7188
needNorm: 1956
ERR:  0.7188

orig = cand[0]     0
orig = cand[1]     6
orig = cand[other] 74
