EVALUATION:
 rank    counts    recall
    1         0    0
    2         0    0
    3         0    0
    4         0    0
    5         0    0
    6         0    0
    7         0    0
    8         0    0
    9         0    0
   10         0    0

                      rec   prec    f1
Error Detection:   0.1967      1 0.3288
Normalization:          0      0   -nan

WER:  0.08549
CER:  0.448

notFound:           122
Total:              122
Average candidates: 1.074
Upperbound:         0 (0)
Baseline:           0 (0)
Testing time:       0

TP 0
TN 0
FP 0
FN 122
Real Prec: -nan
normed: 24
Real rec: 0
needNorm: 122
ERR:  0

orig = cand[0]     0
orig = cand[1]     9
orig = cand[other] 0
