EVALUATION:
 rank    counts    recall
    1       887    0.6331
    2        81    0.6909
    3        28    0.7109
    4        14    0.7209
    5        18    0.7338
    6         8    0.7395
    7        19    0.753
    8        11    0.7609
    9         5    0.7645
   10         3    0.7666

                      rec   prec    f1
Error Detection:   0.9757      1 0.9877
Normalization:     0.6331 0.6489 0.6409

WER:  0.02888
CER:  0.01517

notFound:           289
Total:              1401
Average candidates: 24.54
Upperbound:         0.7937 (1112)
Baseline:           0 (0)
Training time:      22
Testing time:       12

TP 887
TN 0
FP 0
FN 514
Real Prec: 1
normed: 1367
Real rec: 0.6331
needNorm: 1401
ERR:  0.6331

orig = cand[0]     0
orig = cand[1]     7
orig = cand[other] 81
