EVALUATION:
 rank    counts    recall
    1       483    0.5656
    2       109    0.6932
    3        26    0.7237
    4        12    0.7377
    5        24    0.7658
    6        15    0.7834
    7        10    0.7951
    8         4    0.7998
    9        13    0.815
   10        19    0.8372

                      rec   prec    f1
Error Detection:        1      1      1
Normalization:     0.5656 0.5656 0.5656

WER:  0.04591
CER:  0.02894

notFound:           96
Total:              854
Average candidates: 64.93
Upperbound:         0.8876 (758)
Baseline:           0 (0)
Training time:      45
Testing time:       9

TP 483
TN 0
FP 0
FN 371
Real Prec: 1
normed: 854
Real rec: 0.5656
needNorm: 854
ERR:  0.5656

orig = cand[0]     0
orig = cand[1]     0
orig = cand[other] 109
