EVALUATION:
 rank    counts    recall
    1       145    0.1861
    2        92    0.3042
    3        34    0.3479
    4        14    0.3659
    5         4    0.371
    6         3    0.3748
    7         8    0.3851
    8         6    0.3928
    9         2    0.3954
   10         8    0.4056

                      rec   prec    f1
Error Detection:        1      1      1
Normalization:     0.1861 0.1861 0.1861

WER:  0.06915
CER:  0.06554

notFound:           451
Total:              779
Average candidates: 27.16
Upperbound:         0.4211 (328)
Baseline:           0 (0)
Training time:      11
Testing time:       5

TP 145
TN 0
FP 0
FN 634
Real Prec: 1
normed: 779
Real rec: 0.1861
needNorm: 779
ERR:  0.1861

orig = cand[0]     0
orig = cand[1]     4
orig = cand[other] 92
