EVALUATION:
 rank    counts    recall
    1       198    0.2542
    2        43    0.3094
    3        52    0.3761
    4        29    0.4134
    5        14    0.4313
    6         1    0.4326
    7         3    0.4365
    8         1    0.4377
    9         7    0.4467
   10         3    0.4506

                      rec   prec    f1
Error Detection:   0.9872      1 0.9935
Normalization:     0.2542 0.2575 0.2558

WER:  0.06337
CER:  0.06313

notFound:           415
Total:              779
Average candidates: 37.13
Upperbound:         0.4673 (364)
Baseline:           0 (0)
Training time:      15
Testing time:       5

TP 198
TN 0
FP 0
FN 581
Real Prec: 1
normed: 769
Real rec: 0.2542
needNorm: 779
ERR:  0.2542

orig = cand[0]     0
orig = cand[1]     0
orig = cand[other] 43
