EVALUATION:
 rank    counts    recall
    1         3    0.05085
    2         1    0.0678
    3         0    0.0678
    4         1    0.08475
    5         3    0.1356
    6         2    0.1695
    7         0    0.1695
    8         0    0.1695
    9         0    0.1695
   10         0    0.1695

                      rec   prec    f1
Error Detection:   0.9831      1 0.9915
Normalization:    0.050850.051720.05128

WER:  0.02097
CER:  0.01382

notFound:           42
Total:              59
Average candidates: 36.32
Upperbound:         0.2881 (17)
Baseline:           0 (0)
Training time:      2
Testing time:       0

TP 3
TN 0
FP 0
FN 56
Real Prec: 1
normed: 58
Real rec: 0.05085
needNorm: 59
ERR:  0.05085

orig = cand[0]     0
orig = cand[1]     0
orig = cand[other] 1
