EVALUATION:
 rank    counts    recall
    1     17913    0.9457
    2       504    0.9723
    3        62    0.9756
    4        28    0.9771
    5        24    0.9784
    6         6    0.9787
    7         5    0.9789
    8         6    0.9793
    9         2    0.9794
   10         2    0.9795

                      rec   prec    f1
Error Detection:   0.5184 0.9557 0.6722
Normalization:     0.4985 0.9189 0.6463

WER:  0.05427
CER:  0.02234

notFound:           330
Total:              18941
Average candidates: 86.89
Upperbound:         0.9826 (18611)
Baseline:           0.8967 (16985)
Training time:      1648
Testing time:       477

TP 975
TN 16938
FP 47
FN 981
Real Prec: 0.954
normed: 1061
Real rec: 0.4985
needNorm: 1956
ERR:  0.4744

orig = cand[0]     510
orig = cand[1]     43
orig = cand[other] 12
