EVALUATION:
 rank    counts    recall
    1     17303    0.9723
    2       203    0.9837
    3        29    0.9853
    4        16    0.9862
    5         7    0.9866
    6         9    0.9871
    7         4    0.9874
    8         4    0.9876
    9         5    0.9879
   10         0    0.9879

                      rec   prec    f1
Error Detection:   0.7131 0.9496 0.8145
Normalization:     0.6859 0.9135 0.7835

WER:  0.0277
CER:  0.01306

notFound:           190
Total:              17796
Average candidates: 114.7
Upperbound:         0.9893 (17606)
Baseline:           0.9213 (16395)
Training time:      4459
Testing time:       647

TP 961
TN 16342
FP 53
FN 440
Real Prec: 0.9477
normed: 1052
Real rec: 0.6859
needNorm: 1401
ERR:  0.6481

orig = cand[0]     166
orig = cand[1]     52
orig = cand[other] 9
