EVALUATION:
 rank    counts    recall
    1     17308    0.9726
    2       197    0.9836
    3        37    0.9857
    4        11    0.9863
    5        14    0.9871
    6         4    0.9874
    7         6    0.9877
    8         1    0.9878
    9         4    0.988
   10         2    0.9881

                      rec   prec    f1
Error Detection:   0.7195 0.9509 0.8192
Normalization:     0.6888 0.9104 0.7842

WER:  0.02742
CER:  0.01304

notFound:           190
Total:              17796
Average candidates: 114.7
Upperbound:         0.9893 (17606)
Baseline:           0.9213 (16395)
Training time:      4012
Testing time:       588

TP 965
TN 16343
FP 52
FN 436
Real Prec: 0.9489
normed: 1060
Real rec: 0.6888
needNorm: 1401
ERR:  0.6517

orig = cand[0]     160
orig = cand[1]     51
orig = cand[other] 10
