EVALUATION:
 rank    counts    recall
    1     17298    0.972
    2       210    0.9838
    3        31    0.9856
    4        16    0.9865
    5         5    0.9867
    6         6    0.9871
    7         3    0.9872
    8         5    0.9875
    9         3    0.9877
   10         4    0.9879

                      rec   prec    f1
Error Detection:   0.7095  0.953 0.8134
Normalization:     0.6795 0.9128 0.7791

WER:  0.02798
CER:  0.01313

notFound:           190
Total:              17796
Average candidates: 114.7
Upperbound:         0.9893 (17606)
Baseline:           0.9213 (16395)
Training time:      1768
Testing time:       540

TP 952
TN 16346
FP 49
FN 449
Real Prec: 0.951
normed: 1043
Real rec: 0.6795
needNorm: 1401
ERR:  0.6445

orig = cand[0]     176
orig = cand[1]     48
orig = cand[other] 10
