EVALUATION:
 rank    counts    recall
    1     17893    0.9447
    2       520    0.9721
    3        69    0.9758
    4        29    0.9773
    5        14    0.978
    6        10    0.9786
    7         3    0.9787
    8         8    0.9791
    9         0    0.9791
   10         6    0.9795

                      rec   prec    f1
Error Detection:   0.5072 0.9566 0.6629
Normalization:     0.4872  0.919 0.6368

WER:  0.05533
CER:  0.02288

notFound:           330
Total:              18941
Average candidates: 86.89
Upperbound:         0.9826 (18611)
Baseline:           0.8967 (16985)
Training time:      1273
Testing time:       452

TP 953
TN 16940
FP 45
FN 1003
Real Prec: 0.9549
normed: 1037
Real rec: 0.4872
needNorm: 1956
ERR:  0.4642

orig = cand[0]     526
orig = cand[1]     41
orig = cand[other] 14
