EVALUATION:
 rank    counts    recall
    1      7676    0.9499
    2       292    0.986
    3        46    0.9917
    4         9    0.9928
    5         5    0.9934
    6         4    0.9939
    7         1    0.9941
    8         1    0.9942
    9         1    0.9943
   10         1    0.9944

                      rec   prec    f1
Error Detection:   0.6511 0.8728 0.7458
Normalization:     0.6206  0.832 0.7109

WER:  0.05012
CER:  0.0224

notFound:           36
Total:              8081
Average candidates: 84.15
Upperbound:         0.9955 (8045)
Baseline:           0.8943 (7227)
Training time:      133
Testing time:       157

TP 530
TN 7146
FP 81
FN 324
Real Prec: 0.8674
normed: 637
Real rec: 0.6206
needNorm: 854
ERR:  0.5258

orig = cand[0]     207
orig = cand[1]     69
orig = cand[other] 16
