EVALUATION:
 rank    counts    recall
    1     16796    0.9438
    2       645    0.9801
    3        46    0.9826
    4        18    0.9836
    5        12    0.9843
    6         8    0.9848
    7         5    0.9851
    8         3    0.9852
    9         3    0.9854
   10         3    0.9856

                      rec   prec    f1
Error Detection:   0.3155 0.9526  0.474
Normalization:     0.3019 0.9116 0.4536

WER:  0.05619
CER:  0.02441

notFound:           214
Total:              17796
Average candidates: 114.5
Upperbound:         0.988 (17582)
Baseline:           0.9213 (16395)
Training time:      42
Testing time:       491

TP 423
TN 16373
FP 22
FN 978
Real Prec: 0.9506
normed: 464
Real rec: 0.3019
needNorm: 1401
ERR:  0.2862

orig = cand[0]     642
orig = cand[1]     22
orig = cand[other] 6
