EVALUATION:
 rank    counts    recall
    1      8944    0.9755
    2       131    0.9897
    3        14    0.9913
    4         9    0.9923
    5         3    0.9926
    6         1    0.9927
    7         1    0.9928
    8         0    0.9928
    9         0    0.9928
   10         0    0.9928

                      rec   prec    f1
Error Detection:   0.8049 0.9221 0.8595
Normalization:     0.7792 0.8926 0.8321

WER:  0.02454
CER:  0.01325

notFound:           60
Total:              9169
Average candidates: 75.35
Upperbound:         0.9935 (9109)
Baseline:           0.915 (8390)
Training time:      1188
Testing time:       189

TP 607
TN 8337
FP 53
FN 172
Real Prec: 0.9197
normed: 680
Real rec: 0.7792
needNorm: 779
ERR:  0.7112

orig = cand[0]     77
orig = cand[1]     46
orig = cand[other] 8
