EVALUATION:
 rank    counts    recall
    1      8937    0.9747
    2       138    0.9897
    3        15    0.9914
    4         7    0.9921
    5         3    0.9925
    6         4    0.9929
    7         2    0.9931
    8         1    0.9932
    9         0    0.9932
   10         0    0.9932

                      rec   prec    f1
Error Detection:   0.7587 0.9517 0.8443
Normalization:     0.7407 0.9291 0.8243

WER:  0.0253
CER:  0.01364

notFound:           60
Total:              9169
Average candidates: 75.35
Upperbound:         0.9935 (9109)
Baseline:           0.915 (8390)
Training time:      187
Testing time:       167

TP 577
TN 8360
FP 30
FN 202
Real Prec: 0.9506
normed: 621
Real rec: 0.7407
needNorm: 779
ERR:  0.7022

orig = cand[0]     107
orig = cand[1]     26
orig = cand[other] 5
