EVALUATION:
 rank    counts    recall
    1     17925    0.9464
    2       519    0.9738
    3        52    0.9765
    4        25    0.9778
    5        14    0.9786
    6         9    0.979
    7         2    0.9791
    8         4    0.9794
    9         3    0.9795
   10         3    0.9797

                      rec   prec    f1
Error Detection:   0.5271  0.952 0.6785
Normalization:     0.5072  0.916 0.6528

WER:  0.05364
CER:  0.02242

notFound:           330
Total:              18941
Average candidates: 86.89
Upperbound:         0.9826 (18611)
Baseline:           0.8967 (16985)
Training time:      1566
Testing time:       419

TP 992
TN 16933
FP 52
FN 964
Real Prec: 0.9502
normed: 1083
Real rec: 0.5072
needNorm: 1956
ERR:  0.4806

orig = cand[0]     522
orig = cand[1]     48
orig = cand[other] 10
