EVALUATION:
 rank    counts    recall
    1      7742    0.958
    2       230    0.9865
    3        39    0.9913
    4        13    0.9929
    5         3    0.9933
    6         3    0.9937
    7         1    0.9938
    8         1    0.9939
    9         1    0.9941
   10         1    0.9942

                      rec   prec    f1
Error Detection:   0.7506 0.8721 0.8068
Normalization:     0.7131 0.8286 0.7665

WER:  0.04195
CER:  0.01899

notFound:           36
Total:              8081
Average candidates: 84.15
Upperbound:         0.9955 (8045)
Baseline:           0.8943 (7227)
Training time:      976
Testing time:       164

TP 609
TN 7133
FP 94
FN 245
Real Prec: 0.8663
normed: 735
Real rec: 0.7131
needNorm: 854
ERR:  0.603

orig = cand[0]     136
orig = cand[1]     80
orig = cand[other] 14
