EVALUATION:
 rank    counts    recall
    1     17794    0.9394
    2       618    0.9721
    3        63    0.9754
    4        26    0.9768
    5        13    0.9775
    6        15    0.9782
    7         6    0.9786
    8         7    0.9789
    9         4    0.9791
   10         6    0.9795

                      rec   prec    f1
Error Detection:   0.4525 0.9547 0.6139
Normalization:     0.4351  0.918 0.5904

WER:  0.06056
CER:  0.02457

notFound:           330
Total:              18941
Average candidates: 86.89
Upperbound:         0.9826 (18611)
Baseline:           0.8967 (16985)
Training time:      293
Testing time:       428

TP 851
TN 16943
FP 42
FN 1105
Real Prec: 0.953
normed: 927
Real rec: 0.4351
needNorm: 1956
ERR:  0.4136

orig = cand[0]     627
orig = cand[1]     38
orig = cand[other] 14
