EVALUATION:
 rank    counts    recall
    1     14270    0.932
    2       458    0.9619
    3       103    0.9686
    4        46    0.9717
    5        24    0.9732
    6         5    0.9735
    7        10    0.9742
    8         4    0.9745
    9         2    0.9746
   10         6    0.975

                      rec   prec    f1
Error Detection:   0.6463 0.9641 0.7738
Normalization:     0.5998 0.8948 0.7182

WER:  0.06799
CER:  0.02443

notFound:           336
Total:              15311
Average candidates: 215.4
Upperbound:         0.9781 (14975)
Baseline:           0.8397 (12857)
Training time:      281
Testing time:       677

TP 1472
TN 12798
FP 59
FN 982
Real Prec: 0.9615
normed: 1645
Real rec: 0.5998
needNorm: 2454
ERR:  0.5758

orig = cand[0]     385
orig = cand[1]     52
orig = cand[other] 48
