EVALUATION:
 rank    counts    recall
    1      7727    0.9562
    2       245    0.9865
    3        38    0.9912
    4        15    0.9931
    5         4    0.9936
    6         0    0.9936
    7         0    0.9936
    8         2    0.9938
    9         0    0.9938
   10         0    0.9938

                      rec   prec    f1
Error Detection:   0.7225 0.8727 0.7905
Normalization:     0.6909 0.8345 0.7559

WER:  0.04381
CER:  0.01965

notFound:           36
Total:              8081
Average candidates: 84.15
Upperbound:         0.9955 (8045)
Baseline:           0.8943 (7227)
Training time:      808
Testing time:       181

TP 590
TN 7137
FP 90
FN 264
Real Prec: 0.8676
normed: 707
Real rec: 0.6909
needNorm: 854
ERR:  0.5855

orig = cand[0]     152
orig = cand[1]     79
orig = cand[other] 14
