EVALUATION:
 rank    counts    recall
    1     17802    0.9399
    2       622    0.9727
    3        62    0.976
    4        35    0.9778
    5        11    0.9784
    6         5    0.9787
    7         3    0.9788
    8         5    0.9791
    9         3    0.9793
   10         7    0.9796

                      rec   prec    f1
Error Detection:   0.4545 0.9569 0.6163
Normalization:     0.4381 0.9225 0.5941

WER:  0.06013
CER:  0.02463

notFound:           330
Total:              18941
Average candidates: 86.89
Upperbound:         0.9826 (18611)
Baseline:           0.8967 (16985)
Training time:      187
Testing time:       377

TP 857
TN 16945
FP 40
FN 1099
Real Prec: 0.9554
normed: 929
Real rec: 0.4381
needNorm: 1956
ERR:  0.4177

orig = cand[0]     632
orig = cand[1]     36
orig = cand[other] 15
