EVALUATION:
 rank    counts    recall
    1     17294    0.9718
    2       214    0.9838
    3        35    0.9858
    4        14    0.9866
    5         8    0.987
    6         4    0.9872
    7         4    0.9875
    8         0    0.9875
    9         4    0.9877
   10         3    0.9879

                      rec   prec    f1
Error Detection:   0.7081 0.9493 0.8111
Normalization:     0.6795  0.911 0.7784

WER:  0.02821
CER:  0.01324

notFound:           190
Total:              17796
Average candidates: 114.7
Upperbound:         0.9893 (17606)
Baseline:           0.9213 (16395)
Training time:      4403
Testing time:       554

TP 952
TN 16342
FP 53
FN 449
Real Prec: 0.9473
normed: 1045
Real rec: 0.6795
needNorm: 1401
ERR:  0.6417

orig = cand[0]     177
orig = cand[1]     50
orig = cand[other] 11
