EVALUATION:
 rank    counts    recall
    1     17302    0.9722
    2       196    0.9833
    3        38    0.9854
    4        18    0.9864
    5        10    0.987
    6         6    0.9873
    7         3    0.9875
    8         3    0.9876
    9         1    0.9877
   10         0    0.9877

                      rec   prec    f1
Error Detection:   0.7159 0.9471 0.8154
Normalization:     0.6874 0.9093 0.7829

WER:  0.02776
CER:  0.01307

notFound:           190
Total:              17796
Average candidates: 114.7
Upperbound:         0.9893 (17606)
Baseline:           0.9213 (16395)
Training time:      3037
Testing time:       583

TP 963
TN 16339
FP 56
FN 438
Real Prec: 0.945
normed: 1059
Real rec: 0.6874
needNorm: 1401
ERR:  0.6474

orig = cand[0]     158
orig = cand[1]     54
orig = cand[other] 8
