EVALUATION:
 rank    counts    recall
    1     14382    0.9393
    2       385    0.9645
    3        95    0.9707
    4        34    0.9729
    5        17    0.974
    6        11    0.9747
    7         7    0.9752
    8         7    0.9756
    9         1    0.9757
   10         4    0.976

                      rec   prec    f1
Error Detection:   0.7095 0.9524 0.8132
Normalization:     0.6569 0.8818 0.7529

WER:  0.06068
CER:  0.02203

notFound:           331
Total:              15311
Average candidates: 215.4
Upperbound:         0.9784 (14980)
Baseline:           0.8397 (12857)
Training time:      4140
Testing time:       757

TP 1612
TN 12770
FP 87
FN 842
Real Prec: 0.9488
normed: 1828
Real rec: 0.6569
needNorm: 2454
ERR:  0.6214

orig = cand[0]     285
orig = cand[1]     76
orig = cand[other] 51
