EVALUATION:
 rank    counts    recall
    1      8938    0.9748
    2       141    0.9902
    3         8    0.9911
    4         9    0.992
    5         2    0.9923
    6         0    0.9923
    7         1    0.9924
    8         2    0.9926
    9         0    0.9926
   10         1    0.9927

                      rec   prec    f1
Error Detection:    0.801 0.9176 0.8554
Normalization:     0.7754 0.8882  0.828

WER:  0.02519
CER:  0.01362

notFound:           60
Total:              9169
Average candidates: 75.35
Upperbound:         0.9935 (9109)
Baseline:           0.915 (8390)
Training time:      929
Testing time:       183

TP 604
TN 8334
FP 56
FN 175
Real Prec: 0.9152
normed: 680
Real rec: 0.7754
needNorm: 779
ERR:  0.7035

orig = cand[0]     82
orig = cand[1]     50
orig = cand[other] 9
