EVALUATION:
 rank    counts    recall
    1     17919    0.946
    2       525    0.9738
    3        61    0.977
    4        17    0.9779
    5        13    0.9786
    6        10    0.9791
    7         3    0.9793
    8         2    0.9794
    9         5    0.9796
   10         2    0.9797

                      rec   prec    f1
Error Detection:    0.524 0.9517 0.6759
Normalization:     0.5041 0.9155 0.6502

WER:  0.05396
CER:  0.02261

notFound:           330
Total:              18941
Average candidates: 86.89
Upperbound:         0.9826 (18611)
Baseline:           0.8967 (16985)
Training time:      2926
Testing time:       454

TP 986
TN 16933
FP 52
FN 970
Real Prec: 0.9499
normed: 1077
Real rec: 0.5041
needNorm: 1956
ERR:  0.4775

orig = cand[0]     528
orig = cand[1]     48
orig = cand[other] 10
