EVALUATION:
 rank    counts    recall
    1     17257    0.9697
    2       250    0.9838
    3        29    0.9854
    4        11    0.986
    5         8    0.9865
    6         7    0.9869
    7         7    0.9872
    8         5    0.9875
    9         1    0.9876
   10         2    0.9877

                      rec   prec    f1
Error Detection:   0.6709 0.9582 0.7893
Normalization:     0.6445 0.9205 0.7582

WER:  0.03029
CER:  0.01429

notFound:           190
Total:              17796
Average candidates: 114.7
Upperbound:         0.9893 (17606)
Baseline:           0.9213 (16395)
Training time:      727
Testing time:       517

TP 903
TN 16354
FP 41
FN 498
Real Prec: 0.9566
normed: 981
Real rec: 0.6445
needNorm: 1401
ERR:  0.6153

orig = cand[0]     223
orig = cand[1]     40
orig = cand[other] 11
