EVALUATION:
 rank    counts    recall
    1      8941    0.9751
    2       131    0.9894
    3        16    0.9912
    4         7    0.9919
    5         2    0.9921
    6         1    0.9923
    7         0    0.9923
    8         0    0.9923
    9         0    0.9923
   10         0    0.9923

                      rec   prec    f1
Error Detection:   0.7728 0.9436 0.8497
Normalization:     0.7535 0.9201 0.8285

WER:  0.02487
CER:  0.0134

notFound:           60
Total:              9169
Average candidates: 75.35
Upperbound:         0.9935 (9109)
Baseline:           0.915 (8390)
Training time:      300
Testing time:       185

TP 587
TN 8354
FP 36
FN 192
Real Prec: 0.9422
normed: 638
Real rec: 0.7535
needNorm: 779
ERR:  0.7073

orig = cand[0]     95
orig = cand[1]     32
orig = cand[other] 4
