EVALUATION:
 rank    counts    recall
    1     17331    0.9739
    2       167    0.9833
    3        31    0.985
    4        22    0.9862
    5        11    0.9869
    6         4    0.9871
    7         8    0.9875
    8         0    0.9875
    9         7    0.9879
   10         3    0.9881

                      rec   prec    f1
Error Detection:   0.7295 0.9578 0.8282
Normalization:     0.7002 0.9194  0.795

WER:  0.02613
CER:  0.0125

notFound:           190
Total:              17796
Average candidates: 114.7
Upperbound:         0.9893 (17606)
Baseline:           0.9213 (16395)
Training time:      4591
Testing time:       598

TP 981
TN 16350
FP 45
FN 420
Real Prec: 0.9561
normed: 1067
Real rec: 0.7002
needNorm: 1401
ERR:  0.6681

orig = cand[0]     140
orig = cand[1]     42
orig = cand[other] 9
