EVALUATION:
 rank    counts    recall
    1     14383    0.9394
    2       385    0.9645
    3        87    0.9702
    4        37    0.9726
    5        21    0.974
    6        13    0.9749
    7         8    0.9754
    8         4    0.9756
    9         2    0.9758
   10         2    0.9759

                      rec   prec    f1
Error Detection:   0.7033 0.9562 0.8105
Normalization:      0.654 0.8892 0.7537

WER:  0.06061
CER:  0.02232

notFound:           331
Total:              15311
Average candidates: 215.4
Upperbound:         0.9784 (14980)
Baseline:           0.8397 (12857)
Training time:      2996
Testing time:       782

TP 1605
TN 12778
FP 79
FN 849
Real Prec: 0.9531
normed: 1805
Real rec: 0.654
needNorm: 2454
ERR:  0.6218

orig = cand[0]     297
orig = cand[1]     69
orig = cand[other] 46
