EVALUATION:
 rank    counts    recall
    1     17302    0.9722
    2       191    0.983
    3        33    0.9848
    4        21    0.986
    5         9    0.9865
    6         8    0.987
    7        10    0.9875
    8         2    0.9876
    9         1    0.9877
   10         3    0.9879

                      rec   prec    f1
Error Detection:   0.7152 0.9534 0.8173
Normalization:     0.6824 0.9096 0.7798

WER:  0.02776
CER:  0.01314

notFound:           190
Total:              17796
Average candidates: 114.7
Upperbound:         0.9893 (17606)
Baseline:           0.9213 (16395)
Training time:      3092
Testing time:       555

TP 956
TN 16346
FP 49
FN 445
Real Prec: 0.9512
normed: 1051
Real rec: 0.6824
needNorm: 1401
ERR:  0.6474

orig = cand[0]     157
orig = cand[1]     47
orig = cand[other] 11
