EVALUATION:
 rank    counts    recall
    1      7711    0.9542
    2       272    0.9879
    3        29    0.9915
    4        14    0.9932
    5         3    0.9936
    6         2    0.9938
    7         1    0.9939
    8         1    0.9941
    9         0    0.9941
   10         1    0.9942

                      rec   prec    f1
Error Detection:   0.7002  0.873 0.7771
Normalization:     0.6686 0.8336  0.742

WER:  0.04579
CER:  0.02078

notFound:           36
Total:              8081
Average candidates: 84.15
Upperbound:         0.9955 (8045)
Baseline:           0.8943 (7227)
Training time:      638
Testing time:       180

TP 571
TN 7140
FP 87
FN 283
Real Prec: 0.8678
normed: 685
Real rec: 0.6686
needNorm: 854
ERR:  0.5667

orig = cand[0]     179
orig = cand[1]     77
orig = cand[other] 16
