EVALUATION:
 rank    counts    recall
    1     17278    0.9709
    2       223    0.9834
    3        32    0.9852
    4        17    0.9862
    5         9    0.9867
    6         5    0.987
    7         8    0.9874
    8         4    0.9876
    9         3    0.9878
   10         2    0.9879

                      rec   prec    f1
Error Detection:   0.6931 0.9482 0.8008
Normalization:     0.6681 0.9141  0.772

WER:  0.02911
CER:  0.01365

notFound:           190
Total:              17796
Average candidates: 114.7
Upperbound:         0.9893 (17606)
Baseline:           0.9213 (16395)
Training time:      3135
Testing time:       599

TP 936
TN 16342
FP 53
FN 465
Real Prec: 0.9464
normed: 1024
Real rec: 0.6681
needNorm: 1401
ERR:  0.6303

orig = cand[0]     187
orig = cand[1]     51
orig = cand[other] 9
