EVALUATION:
 rank    counts    recall
    1     17943    0.9473
    2       477    0.9725
    3        50    0.9751
    4        39    0.9772
    5        10    0.9777
    6        14    0.9785
    7         3    0.9786
    8         3    0.9788
    9         3    0.9789
   10         1    0.979

                      rec   prec    f1
Error Detection:   0.5368 0.9537 0.6869
Normalization:     0.5158 0.9164 0.6601

WER:  0.05269
CER:  0.02218

notFound:           330
Total:              18941
Average candidates: 86.89
Upperbound:         0.9826 (18611)
Baseline:           0.8967 (16985)
Training time:      2326
Testing time:       396

TP 1009
TN 16934
FP 51
FN 947
Real Prec: 0.9519
normed: 1101
Real rec: 0.5158
needNorm: 1956
ERR:  0.4898

orig = cand[0]     480
orig = cand[1]     47
orig = cand[other] 11
