EVALUATION:
 rank    counts    recall
    1      1329    0.9313
    2        54    0.9692
    3         8    0.9748
    4         2    0.9762
    5         1    0.9769
    6         2    0.9783
    7         0    0.9783
    8         0    0.9783
    9         0    0.9783
   10         1    0.979

                      rec   prec    f1
Error Detection:   0.2049      1 0.3401
Normalization:     0.1967   0.96 0.3265

WER:  0.06868
CER:  0.02938

notFound:           26
Total:              1427
Average candidates: 71.03
Upperbound:         0.9818 (1401)
Baseline:           0.9145 (1305)
Training time:      123
Testing time:       27

TP 24
TN 1305
FP 0
FN 98
Real Prec: 1
normed: 25
Real rec: 0.1967
needNorm: 122
ERR:  0.1967

orig = cand[0]     55
orig = cand[1]     0
orig = cand[other] 1
