EVALUATION:
 rank    counts    recall
    1     14333    0.9361
    2       415    0.9632
    3       100    0.9698
    4        43    0.9726
    5        22    0.974
    6         9    0.9746
    7         7    0.9751
    8         5    0.9754
    9         1    0.9754
   10         2    0.9756

                      rec   prec    f1
Error Detection:   0.6622 0.9627 0.7846
Normalization:     0.6271 0.9117 0.7431

WER:  0.06388
CER:  0.02235

notFound:           331
Total:              15311
Average candidates: 215.4
Upperbound:         0.9784 (14980)
Baseline:           0.8397 (12857)
Training time:      9633
Testing time:       770

TP 1539
TN 12794
FP 63
FN 915
Real Prec: 0.9607
normed: 1688
Real rec: 0.6271
needNorm: 2454
ERR:  0.6015

orig = cand[0]     353
orig = cand[1]     54
orig = cand[other] 35
