EVALUATION:
 rank    counts    recall
    1     14247    0.9305
    2       280    0.9488
    3        45    0.9517
    4        18    0.9529
    5        13    0.9538
    6         8    0.9543
    7         4    0.9545
    8         3    0.9547
    9         3    0.9549
   10         1    0.955

                      rec   prec    f1
Error Detection:   0.6312 0.9556 0.7602
Normalization:     0.5958 0.9019 0.7175

WER:  0.06949
CER:  0.02559

notFound:           682
Total:              15311
Average candidates: 196.1
Upperbound:         0.9555 (14629)
Baseline:           0.8397 (12857)
Training time:      5255
Testing time:       660

TP 1462
TN 12785
FP 72
FN 992
Real Prec: 0.9531
normed: 1621
Real rec: 0.5958
needNorm: 2454
ERR:  0.5664

orig = cand[0]     372
orig = cand[1]     66
orig = cand[other] 28
