EVALUATION:
 rank    counts    recall
    1      1345    0.9425
    2        38    0.9692
    3         9    0.9755
    4         0    0.9755
    5         2    0.9769
    6         0    0.9769
    7         0    0.9769
    8         1    0.9776
    9         0    0.9776
   10         0    0.9776

                      rec   prec    f1
Error Detection:   0.4426 0.8571 0.5838
Normalization:     0.4016 0.7778 0.5297

WER:  0.05746
CER:  0.02549

notFound:           30
Total:              1427
Average candidates: 36.55
Upperbound:         0.979 (1397)
Baseline:           0.9145 (1305)
Training time:      73
Testing time:       21

TP 49
TN 1296
FP 9
FN 73
Real Prec: 0.8448
normed: 63
Real rec: 0.4016
needNorm: 122
ERR:  0.3279

orig = cand[0]     36
orig = cand[1]     7
orig = cand[other] 0
