EVALUATION:
 rank    counts    recall
    1      1334    0.9348
    2        53    0.972
    3         6    0.9762
    4         0    0.9762
    5         3    0.9783
    6         1    0.979
    7         0    0.979
    8         0    0.979
    9         0    0.979
   10         0    0.979

                      rec   prec    f1
Error Detection:   0.2377      1 0.3841
Normalization:     0.2377      1 0.3841

WER:  0.06517
CER:  0.02832

notFound:           26
Total:              1427
Average candidates: 71.03
Upperbound:         0.9818 (1401)
Baseline:           0.9145 (1305)
Training time:      176
Testing time:       39

TP 29
TN 1305
FP 0
FN 93
Real Prec: 1
normed: 29
Real rec: 0.2377
needNorm: 122
ERR:  0.2377

orig = cand[0]     55
orig = cand[1]     0
orig = cand[other] 0
