EVALUATION:
 rank    counts    recall
    1      7703    0.9532
    2       231    0.9818
    3        30    0.9855
    4         5    0.9861
    5         3    0.9865
    6         4    0.987
    7         3    0.9874
    8         0    0.9874
    9         1    0.9875
   10         1    0.9876

                      rec   prec    f1
Error Detection:    0.637 0.9143 0.7509
Normalization:     0.6171 0.8857 0.7274

WER:  0.04678
CER:  0.02185

notFound:           96
Total:              8081
Average candidates: 84.08
Upperbound:         0.9881 (7985)
Baseline:           0.8943 (7227)
Training time:      2522
Testing time:       185

TP 527
TN 7176
FP 51
FN 327
Real Prec: 0.9118
normed: 595
Real rec: 0.6171
needNorm: 854
ERR:  0.5574

orig = cand[0]     179
orig = cand[1]     50
orig = cand[other] 2
